<?xml version="1.0" encoding="UTF-8"?>
<svg width="18px" height="14px" viewBox="0 0 18 14" version="1.1" xmlns="http://www.w3.org/2000/svg" xmlns:xlink="http://www.w3.org/1999/xlink">
    <!-- Generator: Sketch 49.3 (51167) - http://www.bohemiancoding.com/sketch -->
    <title>icons/mail</title>
    <desc>Created with Sketch.</desc>
    <defs>
        <path d="M11.9999993,14.5599991 L14.1773706,12.6195192 L20.3989702,18.0531189 C20.1739417,18.2668789 19.8697131,18.3999989 19.534056,18.3999989 L4.46594259,18.3999989 C4.12902833,18.3999989 3.82354263,18.2668789 3.59725693,18.0531189 L9.82262799,12.6195192 L11.9999993,14.5599991 Z M20.4027416,5.94687965 L11.9999993,13.2799992 L3.59977121,5.94943965 C3.82605691,5.73311966 4.13028547,5.59999967 4.46594259,5.59999967 L19.534056,5.59999967 C19.8722274,5.59999967 20.1764559,5.73183966 20.4027416,5.94687965 Z M3.19999981,6.7238396 L9.27577088,12.1011193 L3.19999981,17.358079 L3.19999981,6.7238396 Z M14.7242277,12.1011193 L20.7999988,6.7199996 L20.7999988,17.358079 L14.7242277,12.1011193 Z" id="path-1"></path>
    </defs>
    <g id="design" stroke="none" stroke-width="1" fill="none" fill-rule="evenodd">
        <g id="page" transform="translate(-890.000000, -447.000000)">
            <g id="margin" transform="translate(878.000000, 173.000000)">
                <g id="contact" transform="translate(9.000000, 134.000000)">
                    <g id="icons/mail" transform="translate(0.000000, 135.000000)">
                        <mask id="mask-2" fill="white">
                            <use xlink:href="#path-1"></use>
                        </mask>
                        <use id="ico_mail" fill="#434346" fill-rule="nonzero" xlink:href="#path-1"></use>
                        <g id="colors/gray_dark" mask="url(#mask-2)"></g>
                    </g>
                </g>
            </g>
        </g>
    </g>
</svg>
